"29" "30" "0.138"
"15" "43, 24" "0.355"
"21" "50" "0.772"
"29" "38, 49" "0.636"
"11, 26" "18" "0.544"
"5" "21, 48, 46, 8" "1.079"
"21" "38, 49" "0.761"
"23" "50" "0.543"
"11, 26" "6, 14, 15" "0.858"
"25, 16, 7, 42" "20" "1.079"
"-" "-" "-"
"19, 20, 23" "39" "0.866"
"1" "24" "0.621"
"12" "8, 27, 42, 26, 46, 21, 43" "1.076"
"3, 49" "12" "1.027"
"3, 49" "43" "0.536"
"33" "34" "0.391"
"7" "30" "0.111"
"3, 49" "10" "0.894"
"1" "30" "0.954"
"3, 49" "48" "0.735"
"-" "-" "-"
"9" "17" "0.31"
"8, 38, 35" "40" "0.917"
"10" "42, 23" "0.436"
"20" "42, 23" "0.982"
"42, 23" "28" "0.758"
"2" "16" "0.559"
"13" "50" "1.239"
"22" "29" "0.029"
"18" "25" "0.423"
"1" "32" "0.484"
"-" "-" "-"
"10" "31" "0.678"
"26" "34" "0.225"
"9" "26" "0.453"
"25" "37" "0.016"
"16, 11" "19" "0.891"
"34" "50" "0.211"
"16, 11" "20, 47" "1.184"
"4" "49" "0.399"
"8" "13" "0.878"
"16, 11" "5, 35, 43, 29" "0.88"
"-" "-" "-"
"10" "47, 39" "0.645"
"23" "49" "1.162"
"3" "44" "0.453"
"38, 8" "41" "1.04"
"7" "49" "0.824"
"10" "27" "0.632"
"20" "38, 8" "1.05"
"34, 21" "47, 39" "0.584"
"6, 15" "38, 8" "0.904"
"10" "34, 21" "0.507"
"-" "-" "-"
"13" "32, 33, 8" "0.42"
"10, 3, 43" "16" "0.8"
"31" "32" "0.231"
"1, 41, 7" "20" "0.978"
"6, 39, 50, 31, 36, 25, 21, 47" "23, 4, 26" "1.022"
"24" "30" "0.213"
"6, 39, 50, 31, 36, 25, 21, 47" "48" "1.066"
"2, 34" "13" "0.633"
"1, 41, 7" "16" "1.11"
"1, 41, 7" "24, 45, 27" "0.987"
"-" "-" "-"
"21" "39" "0.083"
"8" "14, 19" "0.92"
"2" "43" "0.203"
"11" "2, 13" "0.904"
"45, 4" "35, 48" "1.194"
"10" "39" "0.227"
"10" "26, 31, 6" "1.017"
"26, 31, 6" "44" "0.831"
"9" "29" "0.493"
"14, 19" "33" "0.579"
"-" "-" "-"
"27" "45" "0.657"
"9, 11" "26" "0.43"
"2, 30" "9, 11" "0.351"
"28" "43" "0.389"
"19, 20" "43" "0.34"
"50, 12" "33" "0.741"
"42" "44" "0.958"
"27, 17, 13, 31" "46, 38" "1.092"
"50, 12" "44" "0.923"
"37" "49" "0.304"
"-" "-" "-"
"18, 2" "31" "0.867"
"18, 2" "50, 7" "0.772"
"10, 40, 49, 34, 33" "19, 6" "1.174"
"10, 40, 49, 34, 33" "14, 4" "1.124"
"8" "31" "0.94"
"44, 11" "18, 2, 35, 45, 48, 26" "1.096"
"5" "47" "0.889"
"46" "47" "1.105"
"17, 16, 39, 29, 36" "18, 2" "0.909"
"8" "44, 11" "0.773"
"-" "-" "-"
"22, 37, 11" "19, 25, 18, 6" "1.209"
"7" "39" "1.047"
"18" "28, 26" "0.282"
"46, 40" "43" "0.397"
"24" "49" "0.374"
"17" "35" "0.584"
"13" "41" "0.746"
"10" "15, 31" "0.283"
"7" "36" "0.476"
"11" "35" "0.265"
"-" "-" "-"
