"37" "42" "0.506"
"17" "20" "0.502"
"17" "23" "0.674"
"23" "33" "0.099"
"20" "42" "0.861"
"-" "-" "-"
"27" "48" "0.04"
"8, 27, 42, 26, 46, 21, 43" "24" "0.999"
"1" "37, 13" "0.952"
"5" "37, 13" "1.198"
"2, 9, 22" "18, 10" "1.127"
"-" "-" "-"
"10" "17, 14" "0.47"
"10" "50" "0.704"
"11" "39, 37, 43" "0.367"
"7" "50" "0.539"
"16" "24, 30" "0.611"
"-" "-" "-"
"20, 47" "50" "0.268"
"19" "37, 38" "0.202"
"4, 6" "18" "0.824"
"4, 6" "31" "0.814"
"13" "31" "0.48"
"-" "-" "-"
"16, 34, 21" "41" "0.961"
"16, 34, 21" "23" "0.874"
"29" "50" "0.307"
"32" "41" "0.646"
"12" "28, 30" "0.894"
"-" "-" "-"
"46" "49" "0.551"
"12, 19" "47" "0.175"
"13" "14" "0.447"
"9" "11, 5" "0.397"
"6" "44" "0.014"
"-" "-" "-"
"8" "18" "1.21"
"8" "14" "0.482"
"8" "18" "0.772"
"10" "47" "1.125"
"4" "44" "0.216"
"-" "-" "-"
"17, 13, 31" "45" "0.673"
"7" "33" "0.385"
"22" "35" "0.525"
"5" "9, 11" "0.463"
"2, 30" "9, 11, 10, 32, 36, 28" "1.136"
"-" "-" "-"
"19, 6" "47" "0.722"
"32" "48" "0.532"
"15" "31" "0.315"
"35, 45" "50, 7" "0.777"
"17, 16, 39, 29, 36" "47" "1.158"
"-" "-" "-"
"43, 1" "27" "1.177"
"4" "32" "0.052"
"44, 21, 29" "45, 24" "1.115"
"17" "27" "0.765"
"3" "35" "0.322"
"-" "-" "-"
