(((30:1.553829,((41:0.398000,31:0.398000):0.315024,((10:0.293832,(22:0.236144,28:0.236144):0.057688):0.198498,(34:0.258302,40:0.258302):0.234028):0.220694):0.840806):0.486440,(((43:0.014686,24:0.014686):0.571365,27:0.586050):1.278159,(20:1.419518,((38:0.015780,49:0.015780):0.640295,((25:0.129726,(16:0.089759,7:0.089759):0.039967):0.368791,42:0.498517):0.157558):0.763443):0.444691):0.176060):0.750024,((((2:0.212786,32:0.212786):1.724808,(((21:0.513759,((48:0.156925,46:0.156925):0.258972,8:0.415897):0.097861):0.487137,13:1.000896):0.580941,(37:0.462566,50:0.462566):1.119271):0.355757):0.020444,((((23:0.864824,(44:0.298776,(33:0.159037,45:0.159037):0.139739):0.566047):0.075327,29:0.940151):0.975841,(1:1.362887,((12:1.078898,((6:0.105808,14:0.105808):0.308557,15:0.414365):0.664533):0.255148,(3:0.401290,17:0.401290):0.932757):0.028841):0.553104):0.032084,(11:0.175214,26:0.175214):1.772862):0.009963):0.261312,(((18:0.500302,35:0.500302):0.472005,(47:0.348122,9:0.348122):0.624186):1.005704,(((4:0.181694,39:0.181694):0.188017,(19:0.093526,36:0.093526):0.276185):0.273758,5:0.643469):1.334543):0.241338):0.570944);
((((44:1.008383,39:1.008383):0.379557,(18:0.672600,10:0.672600):0.715340):1.545300,(((50:1.852573,(30:0.679608,(3:0.215504,49:0.215504):0.464103):1.172965):0.405346,(24:0.831462,((35:0.356662,36:0.356662):0.457353,38:0.814014):0.017447):1.426457):0.373443,(((((32:0.127012,25:0.127012):0.785855,(40:0.335407,11:0.335407):0.577461):0.026986,45:0.939853):0.419021,((2:0.385412,(9:0.158401,22:0.158401):0.227011):0.857423,(33:1.024192,(37:0.304116,13:0.304116):0.720076):0.218643):0.116040):0.392088,(28:0.217943,4:0.217943):1.533020):0.880398):0.301879):0.257874,((((((19:0.133828,(20:0.123562,23:0.123562):0.010266):0.602992,(8:0.501345,(27:0.411811,(((42:0.212339,26:0.212339):0.033704,(46:0.019425,21:0.019425):0.226618):0.150213,43:0.396256):0.015555):0.089534):0.235474):1.199229,48:1.936049):0.027007,(5:1.011383,1:1.011383):0.951673):0.057700,(((12:1.010072,14:1.010072):0.380107,47:1.390179):0.525876,((41:0.276140,29:0.276140):0.025570,7:0.301710):1.614346):0.104700):0.733131,(34:1.002774,((15:0.268951,(31:0.248329,(16:0.127463,6:0.127463):0.120866):0.020621):0.001804,17:0.270755):0.732019):1.751113):0.437228);
((((28:1.696882,((33:0.300275,11:0.300275):1.013169,(40:1.211397,49:1.211397):0.102047):0.383438):0.641388,((27:2.084154,((((((5:0.223140,34:0.223140):0.607248,((32:0.568044,3:0.568044):0.215688,(45:0.646640,((24:0.336471,30:0.336471):0.279135,(39:0.099460,(37:0.093575,43:0.093575):0.005885):0.516146):0.031034):0.137093):0.046656):0.049103,(((22:0.574893,2:0.574893):0.026029,44:0.600923):0.163473,(20:0.738358,25:0.738358):0.026037):0.115096):0.595454,((17:0.297898,14:0.297898):1.122541,1:1.420440):0.054506):0.120501,(10:0.865121,9:0.865121):0.730326):0.139351,(((8:0.307027,38:0.307027):0.156697,35:0.463725):0.357497,(26:0.378814,18:0.378814):0.442408):0.913576):0.349356):0.154410,(41:2.011342,(((((46:0.581884,21:0.581884):0.037325,(4:0.506671,31:0.506671):0.112537):0.776354,(42:0.001579,23:0.001579):1.393983):0.037894,50:1.433457):0.432533,(48:0.869030,((36:0.017690,6:0.017690):0.025830,19:0.043520):0.825510):0.996959):0.145352):0.227222):0.099706):0.009486,(47:1.385133,((7:1.055660,16:1.055660):0.305153,13:1.360813):0.024321):0.962622):1.291450,((15:0.265021,12:0.265021):0.429246,29:0.694268):2.944938);
(((((((31:0.678506,((12:0.348696,((37:0.056698,38:0.056698):0.263694,2:0.320392):0.028304):0.032364,49:0.381060):0.297446):0.801269,(((32:0.095446,45:0.095446):0.434380,48:0.529826):0.245790,(22:0.701246,7:0.701246):0.074370):0.704159):0.131239,26:1.611014):0.050941,((((3:0.197758,34:0.197758):0.523407,8:0.721165):0.329058,((((50:0.325180,39:0.325180):0.004344,(23:0.050367,15:0.050367):0.279157):0.118057,10:0.447581):0.148363,(4:0.422895,6:0.422895):0.173049):0.454280):0.091154,9:1.141378):0.520578):0.474623,(((13:1.077163,18:1.077163):0.013821,36:1.090984):0.481947,((46:0.453100,33:0.453100):0.548364,(((5:0.279626,35:0.279626):0.063805,(43:0.070279,29:0.070279):0.273152):0.498160,(30:0.694030,19:0.694030):0.147561):0.159873):0.571467):0.563647):0.780423,(((16:0.100968,11:0.100968):1.510693,(20:0.070238,47:0.070238):1.541423):0.188787,((42:0.031341,40:0.031341):0.889918,(41:0.460484,(28:0.300015,25:0.300015):0.160470):0.460775):0.879189):1.116553):0.221247,(1:1.223409,(44:0.466263,((14:0.242319,((17:0.200245,21:0.200245):0.026579,24:0.226824):0.015495):0.146979,27:0.389298):0.076964):0.757146):1.914840);
((((((((5:0.327115,44:0.327115):0.237763,(27:0.495424,(43:0.411671,26:0.411671):0.083753):0.069455):0.250855,((35:0.246225,4:0.246225):0.256826,45:0.503051):0.312683):0.681455,(49:1.254174,(14:0.942696,((18:0.528425,48:0.528425):0.193056,(31:0.328560,37:0.328560):0.392920):0.221215):0.311478):0.243015):0.060700,(((32:0.799232,1:0.799232):0.229656,(12:0.726825,41:0.726825):0.302062):0.099710,20:1.128598):0.429291):0.187272,(((23:0.852841,(17:0.675384,2:0.675384):0.177457):0.743810,(22:0.324431,3:0.324431):1.272220):0.123079,(42:0.103135,40:0.103135):1.616595):0.025430):0.635502,((((9:0.620061,7:0.620061):1.029634,(38:0.115309,8:0.115309):1.534385):0.004520,(16:0.409454,(34:0.060710,21:0.060710):0.348744):1.244761):0.527196,(28:0.168180,30:0.168180):2.013231):0.199252):0.877729,(((25:0.397144,29:0.397144):0.548711,((36:0.454816,13:0.454816):0.105249,24:0.560065):0.385791):1.148211,((10:1.005126,((6:0.291743,15:0.291743):0.499292,11:0.791035):0.214091):0.170155,(((47:0.141294,39:0.141294):0.517816,(46:0.248708,50:0.248708):0.410402):0.470875,(33:0.566959,19:0.566959):0.563027):0.045295):0.918786):1.164325);
((((10:0.334897,3:0.334897):0.085881,43:0.420778):1.432224,(((30:1.317265,((38:0.382444,42:0.382444):0.521490,((32:0.223831,(33:0.206694,8:0.206694):0.017137):0.323598,(2:0.069864,34:0.069864):0.477565):0.356505):0.413331):0.359104,17:1.676369):0.003851,(1:0.495542,(41:0.202555,7:0.202555):0.292987):1.184678):0.172782):1.005093,((((((24:0.361272,(45:0.184942,27:0.184942):0.176330):0.511227,(((((6:0.187221,39:0.187221):0.081117,50:0.268338):0.016420,31:0.284757):0.253205,((36:0.349598,(25:0.179419,21:0.179419):0.170179):0.095752,47:0.445350):0.092612):0.165000,15:0.702962):0.169537):0.418662,40:1.291161):0.063537,(49:1.341809,44:1.341809):0.012889):0.485409,46:1.840107):0.572000,(20:2.252662,(((13:0.994356,16:0.994356):0.029071,48:1.023427):0.824426,((((23:0.075752,4:0.075752):0.137456,26:0.213208):0.720539,((14:0.435773,9:0.435773):0.367005,(28:0.172076,37:0.172076):0.630702):0.130969):0.636547,((35:0.533008,(12:0.038967,19:0.038967):0.494041):0.751251,((11:0.083605,5:0.083605):0.210059,(18:0.087431,(29:0.083803,22:0.083803):0.003627):0.206234):0.990595):0.286035):0.277558):0.404809):0.159445):0.445988);
(((((((32:0.132236,(5:0.078643,1:0.078643):0.053593):0.427350,50:0.559586):0.525445,(10:0.802711,(42:0.782717,25:0.782717):0.019994):0.282320):0.273617,((33:0.531102,(12:0.406454,20:0.406454):0.124649):0.022311,(((36:0.026290,40:0.026290):0.304585,49:0.330875):0.207333,22:0.538208):0.015205):0.805235):0.379613,(15:1.625127,((((39:0.345676,43:0.345676):0.678179,((45:0.151774,4:0.151774):0.822200,46:0.973973):0.049881):0.040868,(8:0.735649,(17:0.633342,(3:0.558750,((38:0.310699,(7:0.234490,21:0.234490):0.076209):0.164005,9:0.474704):0.084046):0.074592):0.102306):0.329074):0.152317,24:1.217040):0.408088):0.113134):0.426914,(((47:0.593371,(37:0.488962,(14:0.285189,19:0.285189):0.203773):0.104410):0.585632,(18:1.117725,(35:0.590334,48:0.590334):0.527391):0.061278):0.330557,((11:0.721152,(2:0.174374,13:0.174374):0.546778):0.779637,((27:0.364902,(41:0.239406,16:0.239406):0.125496):0.624219,44:0.989122):0.511667):0.008771):0.655616):0.325350,(((30:0.032826,34:0.032826):1.212807,(23:1.211397,29:1.211397):0.034236):0.083229,(28:1.163035,(26:0.320451,(31:0.199144,6:0.199144):0.121307):0.842584):0.165827):1.161664);
((((((((9:0.045031,11:0.045031):0.354449,(10:0.217358,(32:0.105999,36:0.105999):0.111359):0.182122):0.284446,28:0.683927):0.415144,1:1.099070):0.136226,((((19:0.223214,20:0.223214):0.254874,47:0.478089):0.136361,6:0.614450):0.597072,(34:0.607927,23:0.607927):0.603596):0.023774):0.973276,(((((2:0.200565,30:0.200565):1.233491,35:1.434056):0.374113,(27:0.815236,(17:0.194513,(13:0.084180,31:0.084180):0.110332):0.620723):0.992933):0.161339,((((50:0.459487,12:0.459487):0.665606,((24:0.196059,(21:0.047190,14:0.047190):0.148869):0.851787,8:1.047846):0.077247):0.072510,5:1.197603):0.341958,((48:0.054947,4:0.054947):0.106390,(18:0.031952,16:0.031952):0.129385):1.378224):0.429948):0.141402,((49:1.359101,(33:0.702695,((3:0.138394,25:0.138394):0.033204,40:0.171598):0.531097):0.656406):0.152512,(44:1.355476,15:1.355476):0.156137):0.599297):0.097662):0.124837,((7:0.657656,37:0.657656):1.481056,(((26:0.825287,(22:0.542864,43:0.542864):0.282423):0.037010,(41:0.025967,29:0.025967):0.836330):0.309316,45:1.171613):0.967100):0.194698):1.492865,((39:1.650551,(46:0.135042,38:0.135042):1.515509):0.033041,42:1.683593):2.142682);
(((((((3:1.593377,((23:0.327321,21:0.327321):0.249211,24:0.576532):1.016846):0.211987,15:1.805364):0.303530,((19:0.101467,6:0.101467):0.912395,46:1.013862):1.095032):0.185878,(((25:0.195843,41:0.195843):0.619397,(12:0.296427,1:0.296427):0.518813):1.396332,(((((10:0.194540,40:0.194540):0.103073,49:0.297613):0.316564,(34:0.281546,33:0.281546):0.332630):0.576328,8:1.190505):0.461427,(((18:0.467637,2:0.467637):0.270838,(35:0.086066,45:0.086066):0.652409):0.027066,(48:0.432470,26:0.432470):0.333071):0.886391):0.559640):0.083200):0.491210,(5:2.755497,((13:1.621180,(((37:0.148199,((27:0.019347,42:0.019347):0.057567,38:0.076914):0.071286):0.505593,30:0.653792):0.337979,47:0.991771):0.629409):0.752782,(((14:0.397866,4:0.397866):0.537775,(22:0.526070,(20:0.062137,9:0.062137):0.463933):0.409571):0.089848,31:1.025488):1.348474):0.381535):0.030484):0.239997,((50:0.189809,7:0.189809):1.750306,((17:0.143868,16:0.143868):0.233109,((39:0.170196,29:0.170196):0.047107,36:0.217303):0.159673):1.563138):1.085863):0.815886,(28:2.465891,((44:0.123316,11:0.123316):1.948671,(32:0.888914,43:0.888914):1.183072):0.393904):1.375973);
(((((50:0.259102,(28:0.010340,26:0.010340):0.248762):0.703082,(32:0.297666,(2:0.206366,47:0.206366):0.091300):0.664518):0.094183,(((8:0.088839,12:0.088839):0.505095,4:0.593934):0.405409,(13:0.850229,(44:0.634467,(21:0.546487,29:0.546487):0.087980):0.215762):0.149114):0.057024):1.600950,(((48:0.125431,(42:0.077578,23:0.077578):0.047854):1.290162,(43:0.590892,1:0.590892):0.824702):1.141707,(41:0.464069,(16:0.256779,49:0.256779):0.207289):2.093232):0.100016):0.194975,(((45:0.385874,24:0.385874):1.009655,((33:1.108397,27:1.108397):0.033658,((17:0.565493,(((3:0.350495,(9:0.095198,5:0.095198):0.255297):0.099530,35:0.450025):0.047151,(46:0.178835,40:0.178835):0.318341):0.068317):0.518318,(19:0.571633,(25:0.419612,(18:0.208593,6:0.208593):0.211018):0.152021):0.512179):0.058244):0.253474):1.365911,(((10:0.181923,30:0.181923):0.837034,34:1.018957):0.899852,((((7:0.745148,(20:0.116343,38:0.116343):0.628806):0.237367,36:0.982516):0.142583,(39:0.948550,14:0.948550):0.176548):0.223239,((15:0.093849,31:0.093849):0.630700,((22:0.084960,37:0.084960):0.476874,11:0.561834):0.162714):0.623789):0.570472):0.842632):0.090851);
