ms 51 100 -T -I 51 1 1 1 1 1 1 1 1 1 1 1 1 1 1 1 1 1 1 1 1 1 1 1 1 1 1 1 1 1 1 1 1 1 1 1 1 1 1 1 1 1 1 1 1 1 1 1 1 1 1 1 -ej 0.0263162185926969 43 24 -ej 0.0282765851418193 49 38 -ej 0.16084144523096 7 16 -ej 0.167591628768935 36 19 -ej 0.189600058345096 6 14 -ej 0.23245933359364 25 16 -ej 0.281197916564004 48 46 -ej 0.284982463320628 45 33 -ej 0.313970442904862 26 11 -ej 0.325582120453594 4 39 -ej 0.381296669580935 32 2 -ej 0.423152466522799 28 22 -ej 0.46285795280749 40 34 -ej 0.526525067515275 22 10 -ej 0.535384347422826 44 33 -ej 0.623808705496857 9 47 -ej 0.662494586144939 39 19 -ej 0.713186367962235 41 31 -ej 0.719081803013983 3 17 -ej 0.742511229549426 15 14 -ej 0.745256459488416 8 46 -ej 0.828883832871405 50 37 -ej 0.882218704871475 34 10 -ej 0.893305348234747 42 16 -ej 0.896503935337291 35 18 -ej 0.92061698146916 46 21 -ej 1.05015886315943 27 24 -ej 1.15304854021681 5 19 -ej 1.17563755367041 38 16 -ej 1.27768592168318 31 10 -ej 1.54969932385273 33 23 -ej 1.68468059554287 29 23 -ej 1.74230264941568 47 18 -ej 1.79353111293449 21 13 -ej 1.93330488950181 14 12 -ej 2.3905120050948 17 12 -ej 2.44219203385162 12 1 -ej 2.54367056954024 20 16 -ej 2.7843467777326 30 10 -ej 2.83453413250823 37 13 -ej 3.34052462921029 24 16 -ej 3.43331411791838 23 1 -ej 3.47202418956135 2 13 -ej 3.49080625718898 11 1 -ej 3.50865831545738 13 1 -ej 3.54444934038325 19 18 -ej 3.65601104112845 16 10 -ej 3.97690906820051 18 1 -ej 4.99999910403722 10 1 -ej 10 51 1 | tail -n +4 | grep -v // > output_5_50_0_1.txt
ms 51 100 -T -I 51 1 1 1 1 1 1 1 1 1 1 1 1 1 1 1 1 1 1 1 1 1 1 1 1 1 1 1 1 1 1 1 1 1 1 1 1 1 1 1 1 1 1 1 1 1 1 1 1 1 1 1 -ej 0.0304360701510287 46 21 -ej 0.193603176319249 23 20 -ej 0.199008810400127 32 25 -ej 0.199715459956786 6 16 -ej 0.209688463123391 20 19 -ej 0.248190679433364 9 22 -ej 0.332703459449127 42 26 -ej 0.33766254114941 49 3 -ej 0.341484089417022 4 28 -ej 0.385512587293156 26 21 -ej 0.389094407440659 31 16 -ej 0.421405214164955 16 15 -ej 0.424232595816822 17 15 -ej 0.432670085534366 41 29 -ej 0.47273445175119 7 29 -ej 0.476504293953681 37 13 -ej 0.525532611642012 40 11 -ej 0.558836018131593 36 35 -ej 0.603882968805574 22 2 -ej 0.620873895174571 43 21 -ej 0.645246254052267 27 21 -ej 0.785532642979021 8 21 -ej 1.05386361820242 18 10 -ej 1.06484332278843 30 3 -ej 1.15448597120442 21 19 -ej 1.27543899232713 38 35 -ej 1.30277661569702 35 24 -ej 1.43032686067409 25 11 -ej 1.47260988713976 45 11 -ej 1.57119690139653 34 15 -ej 1.57998536561672 44 39 -ej 1.58263177604066 14 12 -ej 1.5846859169914 5 1 -ej 1.60475570451081 33 13 -ej 1.94733658924858 2 13 -ej 2.12915391642106 13 11 -ej 2.17469442498938 39 10 -ej 2.17820260316535 47 12 -ej 2.74349717888575 28 11 -ej 2.90270407052081 50 3 -ej 3.00217243816033 29 12 -ej 3.03349926279686 48 19 -ej 3.07581519312215 19 1 -ej 3.16622168113653 12 1 -ej 3.53782063636065 3 24 -ej 4.12294997203172 24 11 -ej 4.31492910785102 15 1 -ej 4.59594843808512 11 10 -ej 4.99999921657477 10 1 -ej 10 51 1 | tail -n +4 | grep -v // > output_5_50_0_2.txt
ms 51 100 -T -I 51 1 1 1 1 1 1 1 1 1 1 1 1 1 1 1 1 1 1 1 1 1 1 1 1 1 1 1 1 1 1 1 1 1 1 1 1 1 1 1 1 1 1 1 1 1 1 1 1 1 1 1 -ej 0.00216942926561453 42 23 -ej 0.0243047521904503 6 36 -ej 0.0597932625962916 36 19 -ej 0.128565132064522 43 37 -ej 0.136650686990514 39 37 -ej 0.306577863413063 5 34 -ej 0.364119261179499 15 12 -ej 0.409289828605471 17 14 -ej 0.412555650875493 33 11 -ej 0.421832399704771 8 38 -ej 0.462286278930074 30 24 -ej 0.520462430541167 26 18 -ej 0.637123180166223 38 35 -ej 0.696128496160976 4 31 -ej 0.78045046089724 32 3 -ej 0.789860480555374 22 2 -ej 0.799465597715546 46 21 -ej 0.825623089212317 44 2 -ej 0.845797132671247 37 24 -ej 0.850746701340897 31 21 -ej 0.888435554348943 45 24 -ej 0.953872218280581 29 12 -ej 1.0144493057002 25 20 -ej 1.05022221880267 20 2 -ej 1.07679051419458 3 24 -ej 1.12829831562159 35 18 -ej 1.14089240894855 34 24 -ej 1.18861229619868 9 10 -ej 1.19398297320899 48 19 -ej 1.20835630079748 24 2 -ej 1.45039879578128 7 16 -ej 1.66436992025184 49 40 -ej 1.80457495398722 40 11 -ej 1.86965645802958 16 13 -ej 1.90307102703172 47 13 -ej 1.91739970202291 23 21 -ej 1.95157886088339 14 1 -ej 1.96946394350856 50 21 -ej 2.02646607529225 2 1 -ej 2.19202622769912 10 1 -ej 2.33139041867924 28 11 -ej 2.3834841995754 18 1 -ej 2.56373162167792 21 19 -ej 2.76343452390439 41 19 -ej 2.86347351592628 27 1 -ej 3.075620753538 19 1 -ej 3.21261011330493 11 1 -ej 3.22564317601147 13 1 -ej 4.99999931303696 12 1 -ej 10 51 1 | tail -n +4 | grep -v // > output_5_50_0_3.txt
ms 51 100 -T -I 51 1 1 1 1 1 1 1 1 1 1 1 1 1 1 1 1 1 1 1 1 1 1 1 1 1 1 1 1 1 1 1 1 1 1 1 1 1 1 1 1 1 1 1 1 1 1 1 1 1 1 1 -ej 0.0499338962587099 42 40 -ej 0.0802469784902345 23 15 -ej 0.0903338135374217 38 37 -ej 0.111906352873848 47 20 -ej 0.111971675925014 43 29 -ej 0.15206887662515 45 32 -ej 0.160866776345663 16 11 -ej 0.315076974452951 34 3 -ej 0.319039375141998 21 17 -ej 0.361386237994499 24 17 -ej 0.386073571599959 17 14 -ej 0.44551276842596 5 35 -ej 0.477997443797481 28 25 -ej 0.510463000227197 37 2 -ej 0.518091458007316 50 39 -ej 0.525012514940656 39 15 -ej 0.54716977524728 35 29 -ej 0.555558210964139 2 12 -ej 0.607121997011709 49 12 -ej 0.620247150560711 27 14 -ej 0.673775407878725 6 4 -ej 0.713106257661518 15 10 -ej 0.721899377646579 46 33 -ej 0.733664696459714 41 25 -ej 0.742870466938729 44 14 -ej 0.844142705056227 48 32 -ej 0.949484887910424 4 10 -ej 1.08102639401781 31 12 -ej 1.10575993173263 30 19 -ej 1.11725678873792 7 22 -ej 1.14899263888876 8 3 -ej 1.23574643057323 32 22 -ej 1.34086077937092 29 19 -ej 1.46779223063562 40 25 -ej 1.59557766130094 33 19 -ej 1.6732634982119 3 10 -ej 1.71618472594112 18 13 -ej 1.73820496716481 36 13 -ej 1.81849496327411 9 10 -ej 1.94918965958405 14 1 -ej 2.35764434243427 22 12 -ej 2.506064687665 19 13 -ej 2.56674024272771 26 12 -ej 2.56777107234002 20 11 -ej 2.64790254055685 12 10 -ej 2.8685558411713 25 11 -ej 3.40409333357551 13 10 -ej 4.64749849358671 11 10 -ej 5 10 1 -ej 10 51 1 | tail -n +4 | grep -v // > output_5_50_0_4.txt
ms 51 100 -T -I 51 1 1 1 1 1 1 1 1 1 1 1 1 1 1 1 1 1 1 1 1 1 1 1 1 1 1 1 1 1 1 1 1 1 1 1 1 1 1 1 1 1 1 1 1 1 1 1 1 1 1 1 -ej 0.0931594479731107 34 21 -ej 0.15826057761006 42 40 -ej 0.176941571179895 8 38 -ej 0.216815533551519 47 39 -ej 0.258072079725214 30 28 -ej 0.37783207177037 4 35 -ej 0.381642233347001 50 46 -ej 0.447679407511435 6 15 -ej 0.497839118190813 3 22 -ej 0.501957714111746 5 44 -ej 0.504175065492427 37 31 -ej 0.609417160366217 29 25 -ej 0.628306845830704 21 16 -ej 0.631708830613382 43 26 -ej 0.697914799692609 36 13 -ej 0.760227744237035 27 26 -ej 0.771931369829045 45 35 -ej 0.810867753173958 48 18 -ej 0.859419308665133 24 13 -ej 0.866805620686523 44 26 -ej 0.869998146324936 33 19 -ej 0.951483124191319 9 7 -ej 1.01140378444337 46 39 -ej 1.03637622483728 2 17 -ej 1.10711126838023 31 18 -ej 1.1153123994903 41 12 -ej 1.21384259475226 15 11 -ej 1.22642088490274 32 1 -ej 1.25174319112004 35 26 -ej 1.30868385387639 23 17 -ej 1.44656628177334 18 14 -ej 1.45141453207594 25 13 -ej 1.54236506841411 11 10 -ej 1.57882707175809 12 1 -ej 1.73183275677082 20 1 -ej 1.73396187444605 39 19 -ej 1.80346778410946 19 10 -ej 1.92452903149774 49 14 -ej 2.29743536075463 26 14 -ej 2.39057946373549 14 1 -ej 2.45005972270985 22 17 -ej 2.53145493237155 7 38 -ej 2.53839086887029 38 16 -ej 2.63892435287099 40 17 -ej 2.67794743542213 17 1 -ej 3.21334418940385 13 10 -ej 3.34737348974586 28 16 -ej 3.65312552940223 16 1 -ej 5 10 1 -ej 10 51 1 | tail -n +4 | grep -v // > output_5_50_0_5.txt
ms 51 100 -T -I 51 1 1 1 1 1 1 1 1 1 1 1 1 1 1 1 1 1 1 1 1 1 1 1 1 1 1 1 1 1 1 1 1 1 1 1 1 1 1 1 1 1 1 1 1 1 1 1 1 1 1 1 -ej 0.0681695205776014 19 12 -ej 0.122221248380259 34 2 -ej 0.132521813914196 4 23 -ej 0.14625998326508 5 11 -ej 0.146606367771826 29 22 -ej 0.152952376853747 22 18 -ej 0.301032628195944 37 28 -ej 0.313878595029452 25 21 -ej 0.32354062346762 45 27 -ej 0.327527544128599 6 39 -ej 0.354353099817693 7 41 -ej 0.361593935542042 8 33 -ej 0.37298963593064 26 23 -ej 0.391573689542564 33 32 -ej 0.469434978642246 50 39 -ej 0.49815952615999 39 31 -ej 0.513741580713451 18 11 -ej 0.585874404826571 3 10 -ej 0.611592579744099 36 21 -ej 0.632015270308497 27 24 -ej 0.669053920696492 42 38 -ej 0.736116060502527 43 10 -ej 0.762348563930071 9 14 -ej 0.779102727673025 47 21 -ej 0.866909450716395 41 1 -ej 0.932453096826191 35 12 -ej 0.94111970716164 31 21 -ej 0.957681435067512 32 2 -ej 1.22977346278317 21 15 -ej 1.40439324018389 28 14 -ej 1.52636432197594 24 15 -ej 1.5813572359636 38 2 -ej 1.63351259606266 23 14 -ej 1.7395429928776 16 13 -ej 1.79040028578471 48 13 -ej 2.24670414267123 12 11 -ej 2.25877861673971 40 15 -ej 2.30444539029574 30 2 -ej 2.34738307379862 49 44 -ej 2.36993130565441 44 15 -ej 2.74709854866641 14 11 -ej 2.93266792519704 2 17 -ej 2.93940492891158 17 1 -ej 3.21911391694224 46 15 -ej 3.2326640239978 13 11 -ej 3.24167264529824 10 1 -ej 3.94084364920626 20 11 -ej 4.2197793950552 15 11 -ej 4.9999982505833 11 1 -ej 10 51 1 | tail -n +4 | grep -v // > output_5_50_0_6.txt
ms 51 100 -T -I 51 1 1 1 1 1 1 1 1 1 1 1 1 1 1 1 1 1 1 1 1 1 1 1 1 1 1 1 1 1 1 1 1 1 1 1 1 1 1 1 1 1 1 1 1 1 1 1 1 1 1 1 -ej 0.0527800045492389 40 36 -ej 0.0659017280081139 34 30 -ej 0.157884286716082 5 1 -ej 0.265478002342075 32 1 -ej 0.304702640184716 45 4 -ej 0.350074572585355 2 13 -ej 0.399803013539506 6 31 -ej 0.470763912771055 7 21 -ej 0.480633311872008 41 16 -ej 0.572547611920612 19 14 -ej 0.62376168251974 38 21 -ej 0.643339872111379 31 26 -ej 0.664267174029266 49 36 -ej 0.693981774536428 43 39 -ej 0.732580038799025 27 16 -ej 0.816000150972093 20 12 -ej 0.953019371606767 9 21 -ej 0.981643841171736 37 14 -ej 1.06624543043409 33 12 -ej 1.08051048643731 36 22 -ej 1.11103716423013 22 12 -ej 1.12175076233881 3 21 -ej 1.1234291223161 50 1 -ej 1.18515904167251 48 35 -ej 1.19125714984362 47 14 -ej 1.27150223055246 21 17 -ej 1.44779025639759 13 11 -ej 1.47689354038192 8 17 -ej 1.57138862003677 42 25 -ej 1.61152872695793 25 10 -ej 1.95535662840769 46 4 -ej 1.98576786876189 44 16 -ej 2.05549910832107 4 39 -ej 2.13754501307254 39 17 -ej 2.17831651259282 10 1 -ej 2.24395323639399 35 18 -ej 2.33491793803439 28 26 -ej 2.36697642044764 18 14 -ej 2.4320098581565 29 23 -ej 2.44333778419944 24 17 -ej 2.50074231292058 30 23 -ej 2.66783348822026 26 23 -ej 2.72763309284202 12 1 -ej 3.01299444113524 16 11 -ej 3.0306051752511 14 11 -ej 3.26261736223244 17 15 -ej 3.48974604365784 15 1 -ej 4.34682285050972 11 1 -ej 4.99999799239237 23 1 -ej 10 51 1 | tail -n +4 | grep -v // > output_5_50_0_7.txt
ms 51 100 -T -I 51 1 1 1 1 1 1 1 1 1 1 1 1 1 1 1 1 1 1 1 1 1 1 1 1 1 1 1 1 1 1 1 1 1 1 1 1 1 1 1 1 1 1 1 1 1 1 1 1 1 1 1 -ej 0.0339324755888592 41 29 -ej 0.041753397004476 18 16 -ej 0.0588444297855708 9 11 -ej 0.061665711211856 21 14 -ej 0.0718022003381617 48 4 -ej 0.110002533795593 31 13 -ej 0.138514594675684 36 32 -ej 0.176466644913572 46 38 -ej 0.180846883607832 3 25 -ej 0.21082773574459 4 16 -ej 0.22423633635372 40 25 -ej 0.254179946007547 17 13 -ej 0.256200840739252 24 14 -ej 0.262089073303791 30 2 -ej 0.284033389650066 32 10 -ej 0.29168573982715 20 19 -ej 0.522022002858916 11 10 -ej 0.600436377359654 50 12 -ej 0.624743957929846 47 19 -ej 0.70938958786423 43 22 -ej 0.794410909512397 34 23 -ej 0.802934211088564 6 19 -ej 0.859394468589625 7 37 -ej 0.89372354395286 28 10 -ej 0.918249352405492 33 25 -ej 1.0653120769793 27 13 -ej 1.07844691267004 26 22 -ej 1.12680987032951 29 22 -ej 1.36927672876666 8 14 -ej 1.43621388475555 10 1 -ej 1.47021953855649 14 12 -ej 1.53100972473101 45 22 -ej 1.56497225565697 5 12 -ej 1.5831609616192 23 19 -ej 1.61422707277612 19 1 -ej 1.77127339628315 44 15 -ej 1.77601037876128 49 25 -ej 1.87395810887115 35 2 -ej 1.97530601233497 25 15 -ej 2.01182716717602 16 12 -ej 2.15686377000297 39 38 -ej 2.20004087525846 42 38 -ej 2.36283103503655 2 13 -ej 2.57366203766561 13 12 -ej 2.75844029004184 15 12 -ej 2.79477065882998 37 22 -ej 2.88606047839472 12 1 -ej 3.04919235428813 22 1 -ej 4.99999803986932 38 1 -ej 10 51 1 | tail -n +4 | grep -v // > output_5_50_0_8.txt
ms 51 100 -T -I 51 1 1 1 1 1 1 1 1 1 1 1 1 1 1 1 1 1 1 1 1 1 1 1 1 1 1 1 1 1 1 1 1 1 1 1 1 1 1 1 1 1 1 1 1 1 1 1 1 1 1 1 -ej 0.0251791773006079 42 27 -ej 0.0808682762148071 9 20 -ej 0.100099821310744 38 27 -ej 0.112010703135066 45 35 -ej 0.132054353809933 6 19 -ej 0.160489762133755 44 11 -ej 0.187237188188549 17 16 -ej 0.192874424270504 37 27 -ej 0.221501796653448 39 29 -ej 0.2470271599861 7 50 -ej 0.253184325841746 40 10 -ej 0.254880116818264 41 25 -ej 0.282809260606502 36 29 -ej 0.366418393150202 34 33 -ej 0.38578528917596 12 1 -ej 0.387328810356428 49 10 -ej 0.425992324040538 23 21 -ej 0.490616536499851 29 16 -ej 0.517803202350941 4 14 -ej 0.562838621346664 48 26 -ej 0.608606757395171 2 18 -ej 0.684654458186324 22 20 -ej 0.75032829107738 24 21 -ej 0.799320772593519 33 10 -ej 0.850879065245655 30 27 -ej 0.961089210578716 35 18 -ej 0.996314290064851 26 18 -ej 1.06099511565347 25 1 -ej 1.15687823491976 43 32 -ej 1.21769114739846 20 14 -ej 1.29074225669044 47 27 -ej 1.31949196549072 46 19 -ej 1.33462328842893 31 14 -ej 1.54938421834187 8 10 -ej 2.07370313636736 3 21 -ej 2.10988738542349 27 13 -ej 2.14990896348518 18 10 -ej 2.34959388213797 21 15 -ej 2.52496508857026 50 16 -ej 2.69658941685874 32 11 -ej 2.74462272880489 19 15 -ej 2.8782531400765 10 1 -ej 2.98653388393397 15 1 -ej 3.08959645901144 14 13 -ej 3.20923692008959 28 11 -ej 3.58614501030099 5 13 -ej 3.62581910087939 13 1 -ej 3.93816349611452 16 1 -ej 4.99999934927438 11 1 -ej 10 51 1 | tail -n +4 | grep -v // > output_5_50_0_9.txt
ms 51 100 -T -I 51 1 1 1 1 1 1 1 1 1 1 1 1 1 1 1 1 1 1 1 1 1 1 1 1 1 1 1 1 1 1 1 1 1 1 1 1 1 1 1 1 1 1 1 1 1 1 1 1 1 1 1 -ej 0.0181257707615891 28 26 -ej 0.135992364036998 42 23 -ej 0.148932832099092 37 22 -ej 0.155732625598532 8 12 -ej 0.164515034836014 31 15 -ej 0.166879799319319 9 5 -ej 0.203946474634001 38 20 -ej 0.219878396062115 48 23 -ej 0.313493444308394 46 40 -ej 0.318906633874331 30 10 -ej 0.361754623693047 47 2 -ej 0.365658501012782 6 18 -ej 0.45012739752322 49 16 -ej 0.454199560528943 50 26 -ej 0.521801322970909 32 2 -ej 0.614409286565105 5 3 -ej 0.67642782077925 45 24 -ej 0.735568845060596 25 18 -ej 0.788882977464618 35 3 -ej 0.813500894455951 41 16 -ej 0.871537543923002 40 3 -ej 0.957978538316109 29 21 -ej 0.984881459387493 22 11 -ej 0.991295598189877 3 17 -ej 1.00205799370156 19 18 -ej 1.03581943296489 43 1 -ej 1.04115198563962 4 12 -ej 1.11220535762023 44 21 -ej 1.27011605576918 15 11 -ej 1.3062273592207 7 20 -ej 1.49043094282932 21 13 -ej 1.66278528587093 39 14 -ej 1.68668535923297 26 2 -ej 1.72232686514444 36 20 -ej 1.75182419054147 13 12 -ej 1.78620705975982 34 10 -ej 1.85178588801815 2 12 -ej 1.89989455849987 18 17 -ej 1.94299322387168 33 27 -ej 1.97227055079379 20 14 -ej 2.00199488656931 27 17 -ej 2.36360226028712 14 11 -ej 2.44632869875723 24 17 -ej 2.48150216010455 23 1 -ej 3.36362592546171 11 10 -ej 4.48288613457421 16 1 -ej 4.65821264824698 12 1 -ej 4.84073863392341 17 10 -ej 4.99999912351205 10 1 -ej 10 51 1 | tail -n +4 | grep -v // > output_5_50_0_10.txt
