(((30,((41,31),((10,(22,28)),(34,40)))),(((43,24),27),(20,((38,49),((25,(16,7)),42))))),((((2,32),(((21,((48,46),8)),13),(37,50))),((((23,(44,(33,45))),29),(1,((12,((6,14),15)),(3,17)))),(11,26))),(((18,35),(47,9)),(((4,39),(19,36)),5))));
((((44,39),(18,10)),(((50,(30,(3,49))),(24,((35,36),38))),(((((32,25),(40,11)),45),((2,(9,22)),(33,(37,13)))),(28,4)))),((((((19,(20,23)),(8,(27,(((42,26),(46,21)),43)))),48),(5,1)),(((12,14),47),((41,29),7))),(34,((15,(31,(16,6))),17))));
((((28,((33,11),(40,49))),((27,((((((5,34),((32,3),(45,((24,30),(39,(37,43)))))),(((22,2),44),(20,25))),((17,14),1)),(10,9)),(((8,38),35),(26,18)))),(41,(((((46,21),(4,31)),(42,23)),50),(48,((36,6),19)))))),(47,((7,16),13))),((15,12),29));
(((((((31,((12,((37,38),2)),49)),(((32,45),48),(22,7))),26),((((3,34),8),((((50,39),(23,15)),10),(4,6))),9)),(((13,18),36),((46,33),(((5,35),(43,29)),(30,19))))),(((16,11),(20,47)),((42,40),(41,(28,25))))),(1,(44,((14,((17,21),24)),27))));
((((((((5,44),(27,(43,26))),((35,4),45)),(49,(14,((18,48),(31,37))))),(((32,1),(12,41)),20)),(((23,(17,2)),(22,3)),(42,40))),((((9,7),(38,8)),(16,(34,21))),(28,30))),(((25,29),((36,13),24)),((10,((6,15),11)),(((47,39),(46,50)),(33,19)))));
((((10,3),43),(((30,((38,42),((32,(33,8)),(2,34)))),17),(1,(41,7)))),((((((24,(45,27)),(((((6,39),50),31),((36,(25,21)),47)),15)),40),(49,44)),46),(20,(((13,16),48),((((23,4),26),((14,9),(28,37))),((35,(12,19)),((11,5),(18,(29,22)))))))));
(((((((32,(5,1)),50),(10,(42,25))),((33,(12,20)),(((36,40),49),22))),(15,((((39,43),((45,4),46)),(8,(17,(3,((38,(7,21)),9))))),24))),(((47,(37,(14,19))),(18,(35,48))),((11,(2,13)),((27,(41,16)),44)))),(((30,34),(23,29)),(28,(26,(31,6)))));
((((((((9,11),(10,(32,36))),28),1),((((19,20),47),6),(34,23))),(((((2,30),35),(27,(17,(13,31)))),((((50,12),((24,(21,14)),8)),5),((48,4),(18,16)))),((49,(33,((3,25),40))),(44,15)))),((7,37),(((26,(22,43)),(41,29)),45))),((39,(46,38)),42));
(((((((3,((23,21),24)),15),((19,6),46)),(((25,41),(12,1)),(((((10,40),49),(34,33)),8),(((18,2),(35,45)),(48,26))))),(5,((13,(((37,((27,42),38)),30),47)),(((14,4),(22,(20,9))),31)))),((50,7),((17,16),((39,29),36)))),(28,((44,11),(32,43))));
(((((50,(28,26)),(32,(2,47))),(((8,12),4),(13,(44,(21,29))))),(((48,(42,23)),(43,1)),(41,(16,49)))),(((45,24),((33,27),((17,(((3,(9,5)),35),(46,40))),(19,(25,(18,6)))))),(((10,30),34),((((7,(20,38)),36),(39,14)),((15,31),((22,37),11))))));
